Name,GTFSid,ZoneId
Estadio do Dragao,1:1,PRT1
Francos,1:10,PRT1
Ramalde,1:11,PRT2
Via Rapida Viso,1:12,PRT2
Sete Bicas,1:13,PRT2
Senhora da Hora,1:14,PRT2
Vasco da Gama,1:15,MTS1
Estadio do Mar,1:16,MTS1
Hospital Pedro Hispano,1:17,MTS1
Parque de Real,1:18,MTS1
Camara de Matosinhos,1:19,MTS1
Campanha,1:2,PRT1
Matosinhos Sul,1:20,MTS1
Brito Capelo,1:21,MTS1
Mercado,1:22,MTS1
Senhor de Matosinhos,1:23,MTS1
Fonte do Cuco,1:24,MAI1
Custoias,1:25,MAI1
Esposade,1:26,MAI1
Crestins,1:27,VCD8
Verdes,1:28,VCD8
Pedras Rubras,1:29,VCD8
Heroismo,1:3,PRT1
Lidador,1:30,VCD8
Vilar Pinheiro,1:31,VCD8
Modivas Sul,1:32,VCD8
Modivas Centro,1:33,VCD8
Mindelo,1:34,VCD3
Espaco Natureza,1:35,VCD3
Varziela,1:36,VCD3
Arvore,1:37,VCD3
Azurara,1:38,VCD3
Santa Clara,1:39,PV_VC
24 de Agosto,1:4,PRT1
Vila do Conde,1:40,PV_VC
Alto de Pega,1:41,PV_VC
Portas Fronhas,1:42,PV_VC
Sao Bras,1:43,PV_VC
Povoa de Varzim,1:44,PV_VC
Candido dos Reis,1:45,MAI1
Pias,1:46,MAI1
Araujo,1:47,MAI1
Custio,1:48,MAI1
Parque da Maia,1:49,MAI1
Bolhao,1:5,PRT1
Forum Maia,1:50,MAI1
Zona Industrial,1:51,MAI2
Mandim,1:52,MAI2
Castelo da Maia,1:53,MAI2
ISMAI,1:54,MAI2
Dom Joao II,1:55,VNG1
Joao de Deus,1:56,VNG1
Camara de Gaia,1:57,VNG1
General Torres,1:58,VNG1
Jardim do Morro,1:59,VNG1
Trindade,1:6,PRT1
Sao Bento,1:60,PRT1
Aliados,1:61,PRT1
Faria Guimaraes,1:62,PRT1
Marques,1:63,PRT1
Combatentes,1:64,PRT1
Salgueiros,1:65,PRT1
Polo Universitario,1:66,PRT3
I.P.O.,1:67,PRT3
Hospital de Sao Joao,1:68,PRT3
Botica,1:69,VCD8
Lapa,1:7,PRT1
Aeroporto,1:70,VCD8
Batalha,1:71,PRT1
Ribeira,1:72,PRT1
Contumil,1:73,PRT3
Nasoni,1:74,PRT3
Nau Vitoria,1:75,PRT3
Levada,1:76,MAI4
Rio Tinto,1:77,MAI4
Campainha,1:78,MAI4
Baguim,1:79,MAI4
Carolina Michaelis,1:8,PRT1
Carreira,1:80,MAI4
Venda Nova,1:81,GDM1
Fanzeres,1:82,GDM1
Santo Ovidio,1:83,VNG1
VC Fashion Outlet Modivas,1:84,VCD8
Casa da Musica,1:9,PRT1
